date,temp,angle,pression,light
12.4,21.6,77,1014,12.5
12.5,21.6,77,1014,12.5
12.6,21.6,76,1014,12.399999999999999
13.4,21.6,77,1014,12.5
13.5,21.6,77,1014,12.5
13.6,21.6,77,1014,12.5
13.7,21.6,77,1014,12.5
14.5,21.6,77,1014,12.5
14.6,21.6,77,1014,12.5
15.4,21.6,77,1014,12.5
16.1,21.6,97,1014,12.5
16.2,21.6,106,1014,12.5
16.3,21.6,115,1014,12.5
16.4,21.6,123,1014,12.5
16.5,21.6,131,1014,12.5
16.6,21.6,138,1014,12.5
16.7,21.6,145,1014,12.5
16.8,21.6,152,1014,12.5
16.9,21.6,155,1014,12.5
17.0,21.6,155,1014,12.5
17.1,21.6,155,1014,12.5
17.2,21.6,161,1014,12.5
17.3,21.6,171,1014,12.5
17.4,21.6,184,1014,12.5
17.5,21.6,196,1014,12.5
17.6,21.6,202,1014,12.5
17.7,21.6,194,1014,12.5
17.8,21.6,171,1014,12.5
17.9,21.6,135,1014,12.5
18.7,21.6,184,1014,12.5
18.8,21.6,159,1014,12.5
18.9,21.6,137,1014,12.5
19.0,21.6,118,1014,12.5
19.1,21.6,100,1014,12.5
19.2,21.6,85,1014,12.5
19.3,21.6,72,1014,12.5
19.4,21.6,61,1014,12.5
19.5,21.6,51,1014,12.5
19.6,21.6,43,1014,12.5
19.7,21.6,36,1014,12.5
19.8,21.6,30,1014,12.399999999999999
19.9,21.6,25,1014,12.399999999999999
20.0,21.6,22,1014,12.5
20.1,21.6,16,1014,12.7
20.2,21.6,7,1014,12.5
20.3,21.6,1,1014,12.8
20.4,21.6,353,1014,13.100000000000001
20.5,21.6,346,1014,13.5
20.6,21.6,340,1014,13.8
20.7,21.6,340,1014,14.0
20.8,21.6,340,1014,13.8
20.9,21.6,340,1014,14.0
21.1,21.6,339,1014,13.8
21.2,21.6,339,1014,14.0
21.3,21.6,339,1014,14.0
21.4,21.6,339,1014,14.0
21.5,21.6,339,1014,14.0
21.6,21.6,339,1014,14.0
21.7,21.6,339,1014,13.8
21.8,21.6,339,1014,14.0
21.9,21.6,339,1014,13.8
22.0,21.6,339,1014,14.0
22.1,21.6,339,1014,14.0
22.3,21.6,339,1014,14.399999999999999
22.4,21.6,339,1014,13.8
22.6,21.6,338,1014,13.8
22.7,21.6,338,1014,13.8
22.8,21.8,338,1014,14.0
23.0,21.9,338,1010,13.8
23.2,22.0,338,1010,13.8
23.3,22.0,338,1010,13.8
23.5,22.2,338,1010,13.8
23.6,22.3,338,1010,13.7
23.8,22.5,338,1010,13.8
24.0,22.7,338,1010,13.7
24.1,22.7,338,1010,13.7
24.3,22.9,338,1010,13.8
24.5,23.0,338,1010,13.8
24.7,23.2,338,1010,13.8
24.9,23.3,338,1010,13.8
25.1,23.5,338,1010,13.8
25.3,23.6,338,1010,13.8
25.5,23.8,338,1010,13.8
25.7,24.0,338,1010,13.8
25.9,24.1,337,1010,13.8
26.1,24.2,335,1010,13.7
26.3,24.3,335,1010,13.5
26.5,24.5,334,1010,13.399999999999999
26.7,24.6,335,1010,0.0
26.9,24.8,334,1010,-4.7
27.1,24.8,334,1010,-5.5
27.3,25.0,334,1010,-5.4
27.5,25.1,334,1010,-5.2
27.7,25.2,334,1010,-5.5
27.9,25.3,334,1010,-6.5
28.1,25.3,334,1010,-6.4
28.3,25.4,334,1010,-6.4
28.5,25.5,334,1010,-6.2
28.7,25.6,333,1010,14.0
28.9,25.7,333,1010,14.0
29.1,25.8,332,1010,14.100000000000001
29.3,25.9,333,1010,14.100000000000001
29.5,26.0,332,1010,14.100000000000001
29.7,26.1,333,1010,14.100000000000001
29.9,26.1,332,1010,14.0
30.1,26.2,332,1010,14.0
30.3,26.3,333,1010,13.5
30.5,26.4,335,1010,13.100000000000001
30.7,26.5,335,1010,12.7
30.9,26.5,333,1010,12.5
31.1,26.6,329,1010,12.399999999999999
31.3,26.6,326,1010,12.399999999999999
31.5,26.8,322,1010,12.399999999999999
31.7,26.8,322,1010,12.399999999999999
31.9,26.9,322,1010,12.399999999999999
32.1,27.0,322,1010,12.399999999999999
32.3,27.0,322,1010,12.399999999999999
32.5,27.1,322,1010,12.399999999999999
32.7,27.1,322,1010,12.399999999999999
32.9,27.2,320,1010,12.399999999999999
33.1,27.3,316,1010,14.0
33.3,27.3,316,1010,15.399999999999999
33.5,27.3,316,1010,24.200000000000003
33.7,27.4,310,1010,31.1
33.9,27.5,308,1010,32.9
34.1,27.5,308,1010,32.9
34.3,27.6,308,1010,32.9
34.5,27.6,306,1010,31.200000000000003
34.7,27.6,308,1010,21.9
34.9,27.6,308,1010,17.3
35.2,27.8,320,1010,15.3
35.4,27.8,325,1010,15.100000000000001
35.6,27.8,324,1010,12.8
35.8,27.9,326,1010,12.399999999999999
36.0,28.0,324,1010,13.2
36.2,28.0,322,1010,12.7
36.4,28.0,323,1010,12.7
36.6,28.1,323,1010,12.7
36.8,28.1,323,1010,12.7
37.0,28.1,322,1010,12.7
37.2,28.2,323,1010,12.8
37.4,28.3,322,1010,12.7
37.6,28.3,322,1010,12.7
37.8,28.3,322,1010,12.7
38.0,28.4,322,1010,12.7
38.2,28.4,323,1010,12.8
38.4,28.4,322,1010,7.199999999999999
38.6,28.5,321,1010,12.8
38.8,28.5,323,1010,12.8
39.0,28.5,323,1010,12.8
39.2,28.5,323,1010,12.8
39.4,28.5,321,1010,12.8
39.6,28.6,321,1010,12.8
39.8,28.6,323,1010,12.8
40.0,28.6,321,1010,12.8
40.2,28.6,322,1010,12.8
40.4,28.6,322,1010,12.8
40.6,28.6,321,1010,12.8
40.8,28.6,320,1010,12.8
41.0,28.6,322,1010,12.8
41.2,28.6,323,1010,12.8
41.4,28.6,323,1010,12.8
41.6,28.6,322,1010,12.8
41.8,28.6,322,1010,12.8
42.0,28.6,323,1010,12.8
